main.c:30:8:Termistor	32	static
main.c:110:5:main	48	static
main.c:342:6:SystemClock_Config	88	static
main.c:392:13:MX_ADC1_Init	24	static
main.c:450:13:MX_I2C1_Init	8	static
main.c:496:13:MX_RTC_Init	8	static
main.c:532:13:MX_SPI2_Init	8	static
main.c:572:13:MX_USART1_UART_Init	8	static
main.c:620:13:MX_USART2_UART_Init	8	static
main.c:656:13:MX_GPIO_Init	56	static
main.c:720:6:HAL_SYSTICK_Callback	8	static
main.c:763:16:platform_write	48	static
main.c:781:16:platform_read	48	static
main.c:794:6:Error_Handler	8	static,ignoring_inline_asm
